{ 
    "_id" : ObjectId("574a59b6a1af7c632705b7ce"), 
    "name" : "Menabung", 
    "unique_name" : "menabung", 
    "grade" : "penggalang"
}
{ 
    "_id" : ObjectId("574a59f7a1af7c632705b7cf"), 
    "name" : "Pengaman Kampung", 
    "unique_name" : "pengaman-kampung", 
    "grade" : "penggalang"
}
{ 
    "_id" : ObjectId("574a5a28a1af7c632705b7d0"), 
    "name" : "Gerak Jalan", 
    "unique_name" : "gerak-jalan", 
    "grade" : "penggalang"
}
{ 
    "_id" : ObjectId("574a5a3fa1af7c632705b7d1"), 
    "name" : "Pengamat", 
    "unique_name" : "pengamat", 
    "grade" : "penggalang"
}
{ 
    "_id" : ObjectId("574a5a55a1af7c632705b7d2"), 
    "name" : "Penyelidik", 
    "unique_name" : "penyelidik", 
    "grade" : "penggalang"
}
{ 
    "_id" : ObjectId("574a5a81a1af7c632705b7d3"), 
    "name" : "Perenang", 
    "unique_name" : "perenang", 
    "grade" : "penggalang"
}
{ 
    "_id" : ObjectId("574a5afaa1af7c632705b7d4"), 
    "name" : "Juru Layar", 
    "unique_name" : "juru-layar", 
    "grade" : "penggalang"
}
{ 
    "_id" : ObjectId("574a5b09a1af7c632705b7d5"), 
    "name" : "Juru Selam", 
    "unique_name" : "juru-selam", 
    "grade" : "penggalang"
}
{ 
    "_id" : ObjectId("574a5b16a1af7c632705b7d6"), 
    "name" : "Pendayung", 
    "unique_name" : "pendayung", 
    "grade" : "penggalang"
}
{ 
    "_id" : ObjectId("574a5b24a1af7c632705b7d7"), 
    "name" : "Ski Air", 
    "unique_name" : "ski-air", 
    "grade" : "penggalang"
}
{ 
    "_id" : ObjectId("574a5b38a1af7c632705b7d8"), 
    "name" : "Pencak Silat", 
    "unique_name" : "pencak-silat", 
    "grade" : "penggalang"
}
{ 
    "_id" : ObjectId("574a5b5ea1af7c632705b7d9"), 
    "name" : "Posyandu atau Keluarga Berencana", 
    "unique_name" : "posyandu-atau-keluarga-berencana", 
    "grade" : "penggalang"
}
{ 
    "_id" : ObjectId("574a5b6ea1af7c632705b7da"), 
    "name" : "Shalat", 
    "unique_name" : "shalat", 
    "grade" : "penggalang"
}
{ 
    "_id" : ObjectId("574a5b79a1af7c632705b7db"), 
    "name" : "Khatib", 
    "unique_name" : "khatib", 
    "grade" : "penggalang"
}
{ 
    "_id" : ObjectId("574a5b83a1af7c632705b7dc"), 
    "name" : "Qori", 
    "unique_name" : "qori", 
    "grade" : "penggalang"
}
{ 
    "_id" : ObjectId("574a5b8fa1af7c632705b7dd"), 
    "name" : "Muadzin", 
    "unique_name" : "muadzin", 
    "grade" : "penggalang"
}
{ 
    "_id" : ObjectId("574a5b9aa1af7c632705b7de"), 
    "name" : "Penabung", 
    "unique_name" : "penabung", 
    "grade" : "penggalang"
}
{ 
    "_id" : ObjectId("574a5ba6a1af7c632705b7df"), 
    "name" : "Doa", 
    "unique_name" : "doa", 
    "grade" : "penggalang"
}
{ 
    "_id" : ObjectId("574a5bb1a1af7c632705b7e0"), 
    "name" : "Gereja", 
    "unique_name" : "gereja", 
    "grade" : "penggalang"
}
{ 
    "_id" : ObjectId("574a5be2a1af7c632705b7e1"), 
    "name" : "Pelayanan", 
    "unique_name" : "pelayanan", 
    "grade" : "penggalang"
}
{ 
    "_id" : ObjectId("574a5bf6a1af7c632705b7e2"), 
    "name" : "Saksi Kristus", 
    "unique_name" : "saksi-kristus", 
    "grade" : "penggalang"
}
{ 
    "_id" : ObjectId("574a5c0aa1af7c632705b7e3"), 
    "name" : "Terang Alkitab", 
    "unique_name" : "terang-alkitab", 
    "grade" : "penggalang"
}
{ 
    "_id" : ObjectId("574a5c1aa1af7c632705b7e4"), 
    "name" : "Suluh Gereja", 
    "unique_name" : "suluh-gereja", 
    "grade" : "penggalang"
}
{ 
    "_id" : ObjectId("574a5c27a1af7c632705b7e5"), 
    "name" : "Bhakti", 
    "unique_name" : "bhakti", 
    "grade" : "penggalang"
}
{ 
    "_id" : ObjectId("574a5c3da1af7c632705b7e6"), 
    "name" : "Dharmapala", 
    "unique_name" : "dharmapala", 
    "grade" : "penggalang"
}
{ 
    "_id" : ObjectId("574a5c48a1af7c632705b7e7"), 
    "name" : "Wicaksana", 
    "unique_name" : "wicaksana", 
    "grade" : "penggalang"
}
{ 
    "_id" : ObjectId("574a5c57a1af7c632705b7e8"), 
    "name" : "Dana Punia", 
    "unique_name" : "dana-punia", 
    "grade" : "penggalang"
}
{ 
    "_id" : ObjectId("574a5c67a1af7c632705b7e9"), 
    "name" : "Pendidikan KB", 
    "unique_name" : "pendidikan-kb", 
    "grade" : "penggalang"
}
{ 
    "_id" : ObjectId("574a5c7ba1af7c632705b7ea"), 
    "name" : "Penjilid Buku", 
    "unique_name" : "penjilid-buku", 
    "grade" : "penggalang"
}
{ 
    "_id" : ObjectId("574a5c8da1af7c632705b7eb"), 
    "name" : "Juru Potret", 
    "unique_name" : "juru-potret", 
    "grade" : "penggalang"
}
{ 
    "_id" : ObjectId("574a5c98a1af7c632705b7ec"), 
    "name" : "Juru Kulit", 
    "unique_name" : "juru-kulit", 
    "grade" : "penggalang"
}
{ 
    "_id" : ObjectId("574a5ca3a1af7c632705b7ed"), 
    "name" : "Juru Logam", 
    "unique_name" : "juru-logam", 
    "grade" : "penggalang"
}
{ 
    "_id" : ObjectId("574a5cb2a1af7c632705b7ee"), 
    "name" : "Penenun", 
    "unique_name" : "penenun", 
    "grade" : "penggalang"
}
{ 
    "_id" : ObjectId("574a5cc4a1af7c632705b7ef"), 
    "name" : "Penangkap Ikan", 
    "unique_name" : "penangkap-ikan", 
    "grade" : "penggalang"
}
{ 
    "_id" : ObjectId("574a5cd3a1af7c632705b7f0"), 
    "name" : "Juru Kebun", 
    "unique_name" : "juru-kebun", 
    "grade" : "penggalang"
}
{ 
    "_id" : ObjectId("574a5ce7a1af7c632705b7f1"), 
    "name" : "Peternak Ulat Sutera", 
    "unique_name" : "peternak-ulat-sutera", 
    "grade" : "penggalang"
}
{ 
    "_id" : ObjectId("574a5cf6a1af7c632705b7f2"), 
    "name" : "Peternak Lebah", 
    "unique_name" : "peternak-lebah", 
    "grade" : "penggalang"
}
{ 
    "_id" : ObjectId("574a5d02a1af7c632705b7f3"), 
    "name" : "Peternak Kelinci", 
    "unique_name" : "peternak-kelinci", 
    "grade" : "penggalang"
}
{ 
    "_id" : ObjectId("574a5d12a1af7c632705b7f4"), 
    "name" : "Filateli", 
    "unique_name" : "filateli", 
    "grade" : "penggalang"
}
{ 
    "_id" : ObjectId("574a5d23a1af7c632705b7f5"), 
    "name" : "Pengumpul Lencana", 
    "unique_name" : "pengumpul-lencana", 
    "grade" : "penggalang"
}
{ 
    "_id" : ObjectId("574a5d32a1af7c632705b7f6"), 
    "name" : "Pengumpul Mata Uang", 
    "unique_name" : "pengumpul-mata-uang", 
    "grade" : "penggalang"
}
{ 
    "_id" : ObjectId("574a5d46a1af7c632705b7f7"), 
    "name" : "Pengumpul Tanaman Kering", 
    "unique_name" : "pengumpul-tanaman-kering", 
    "grade" : "penggalang"
}
{ 
    "_id" : ObjectId("574a5d4fa1af7c632705b7f8"), 
    "name" : "Pengumpul Tanaman Hidup", 
    "unique_name" : "pengumpul-tanaman-hidup", 
    "grade" : "penggalang"
}
{ 
    "_id" : ObjectId("574a5d5ea1af7c632705b7f9"), 
    "name" : "Juru Masak", 
    "unique_name" : "juru-masak", 
    "grade" : "penggalang"
}
{ 
    "_id" : ObjectId("574a5d74a1af7c632705b7fa"), 
    "name" : "Pecinta Dirgantara", 
    "unique_name" : "pecinta-dirgantara", 
    "grade" : "penggalang"
}
{ 
    "_id" : ObjectId("574a5d89a1af7c632705b7fb"), 
    "name" : "Pembuat Pesawat Model", 
    "unique_name" : "pembuat-pesawat-model", 
    "grade" : "penggalang"
}
{ 
    "_id" : ObjectId("574a5d9aa1af7c632705b7fc"), 
    "name" : "Pengenal Cuaca", 
    "unique_name" : "pengenal-cuaca", 
    "grade" : "penggalang"
}
{ 
    "_id" : ObjectId("574a5da9a1af7c632705b7fd"), 
    "name" : "Komunikasi", 
    "unique_name" : "komunikasi", 
    "grade" : "penggalang"
}
{ 
    "_id" : ObjectId("574a5db6a1af7c632705b7fe"), 
    "name" : "Penjelajah", 
    "unique_name" : "penjelajah", 
    "grade" : "penggalang"
}
{ 
    "_id" : ObjectId("574a5dc2a1af7c632705b7ff"), 
    "name" : "Juru Peta", 
    "unique_name" : "juru-peta", 
    "grade" : "penggalang"
}
{ 
    "_id" : ObjectId("574a5dd4a1af7c632705b800"), 
    "name" : "Juru Navigasi Laut", 
    "unique_name" : "juru-navigasi-laut", 
    "grade" : "penggalang"
}
{ 
    "_id" : ObjectId("574a5deaa1af7c632705b801"), 
    "name" : "Juru Isyarat Bendera", 
    "unique_name" : "juru-isyarat-bendera", 
    "grade" : "penggalang"
}
{ 
    "_id" : ObjectId("574a5df5a1af7c632705b802"), 
    "name" : "Pelaut", 
    "unique_name" : "pelaut", 
    "grade" : "penggalang"
}
{ 
    "_id" : ObjectId("574a5e02a1af7c632705b803"), 
    "name" : "Pengembara", 
    "unique_name" : "pengembara", 
    "grade" : "penggalang"
}
{ 
    "_id" : ObjectId("574a5e10a1af7c632705b804"), 
    "name" : "Petani Padi", 
    "unique_name" : "petani-padi", 
    "grade" : "penggalang"
}
{ 
    "_id" : ObjectId("574a5e25a1af7c632705b805"), 
    "name" : "Penanam Tanaman Hias", 
    "unique_name" : "penanam-tanaman-hias", 
    "grade" : "penggalang"
}
{ 
    "_id" : ObjectId("574a5e38a1af7c632705b806"), 
    "name" : "Petani Cabai", 
    "unique_name" : "petani-cabai", 
    "grade" : "penggalang"
}
{ 
    "_id" : ObjectId("574a5e47a1af7c632705b807"), 
    "name" : "Juru Bambu", 
    "unique_name" : "juru-bambu", 
    "grade" : "penggalang"
}
{ 
    "_id" : ObjectId("574a5e51a1af7c632705b808"), 
    "name" : "Juru Anyam", 
    "unique_name" : "juru-anyam", 
    "grade" : "penggalang"
}
{ 
    "_id" : ObjectId("574a5e5ba1af7c632705b809"), 
    "name" : "Juru Kayu", 
    "unique_name" : "juru-kayu", 
    "grade" : "penggalang"
}
{ 
    "_id" : ObjectId("574a5e64a1af7c632705b80a"), 
    "name" : "Juru Batu", 
    "unique_name" : "juru-batu", 
    "grade" : "penggalang"
}
{ 
    "_id" : ObjectId("574a5e74a1af7c632705b80b"), 
    "name" : "Peternak Itik", 
    "unique_name" : "peternak-itik", 
    "grade" : "penggalang"
}
{ 
    "_id" : ObjectId("574a5e7fa1af7c632705b80c"), 
    "name" : "Peternak Sapi", 
    "unique_name" : "peternak-sapi", 
    "grade" : "penggalang"
}
{ 
    "_id" : ObjectId("574a5e8ca1af7c632705b80d"), 
    "name" : "Peternak Merpati", 
    "unique_name" : "peternak-merpati", 
    "grade" : "penggalang"
}
{ 
    "_id" : ObjectId("574a5e98a1af7c632705b80e"), 
    "name" : "Pengumpul", 
    "unique_name" : "pengumpul", 
    "grade" : "penggalang"
}
{ 
    "_id" : ObjectId("574a5ea3a1af7c632705b80f"), 
    "name" : "Pengumpul Benda", 
    "unique_name" : "pengumpul-benda", 
    "grade" : "penggalang"
}
{ 
    "_id" : ObjectId("574a5eaba1af7c632705b810"), 
    "name" : "Pengumpul Hewan", 
    "unique_name" : "pengumpul-hewan", 
    "grade" : "penggalang"
}
{ 
    "_id" : ObjectId("574a5ec0a1af7c632705b811"), 
    "name" : "Juru Semboyan", 
    "unique_name" : "juru-semboyan", 
    "grade" : "penggalang"
}
{ 
    "_id" : ObjectId("574a5ecba1af7c632705b812"), 
    "name" : "Penjahit", 
    "unique_name" : "penjahit", 
    "grade" : "penggalang"
}
{ 
    "_id" : ObjectId("574a5edca1af7c632705b813"), 
    "name" : "Pengendara Sepeda", 
    "unique_name" : "pengendara-sepeda", 
    "grade" : "penggalang"
}
{ 
    "_id" : ObjectId("574a5efca1af7c632705b814"), 
    "name" : "Juru Konstruksi Pesawat Udara", 
    "unique_name" : "juru-konstruksi-pesawat-udara", 
    "grade" : "penggalang"
}
{ 
    "_id" : ObjectId("574a5f0ca1af7c632705b815"), 
    "name" : "Juru Mesin Pesawat Udara", 
    "unique_name" : "juru-mesin-pesawat-udara", 
    "grade" : "penggalang"
}
{ 
    "_id" : ObjectId("574a5f1ca1af7c632705b816"), 
    "name" : "Juru Navigasi Udara", 
    "unique_name" : "juru-navigasi-udara", 
    "grade" : "penggalang"
}
{ 
    "_id" : ObjectId("574a5f32a1af7c632705b817"), 
    "name" : "Juru Evakuasi Mesin", 
    "unique_name" : "juru-evakuasi-mesin", 
    "grade" : "penggalang"
}
{ 
    "_id" : ObjectId("574a5f47a1af7c632705b818"), 
    "name" : "Pengenal Pesawat Udara", 
    "unique_name" : "pengenal-pesawat-udara", 
    "grade" : "penggalang"
}
{ 
    "_id" : ObjectId("574a5f5fa1af7c632705b819"), 
    "name" : "Juru Isyarat Elektronika", 
    "unique_name" : "juru-isyarat-elektronika", 
    "grade" : "penggalang"
}
{ 
    "_id" : ObjectId("574a5f6ba1af7c632705b81a"), 
    "name" : "Juru Isyarat Optika", 
    "unique_name" : "juru-isyarat-optika", 
    "grade" : "penggalang"
}
{ 
    "_id" : ObjectId("574a5f8aa1af7c632705b81b"), 
    "name" : "Perencana Kapal", 
    "unique_name" : "perencana-kapal", 
    "grade" : "penggalang"
}
{ 
    "_id" : ObjectId("574a5f99a1af7c632705b81c"), 
    "name" : "Perahu Motor", 
    "unique_name" : "perahu-motor", 
    "grade" : "penggalang"
}
{ 
    "_id" : ObjectId("574a5fa6a1af7c632705b81d"), 
    "name" : "Berkemah", 
    "unique_name" : "berkemah", 
    "grade" : "penggalang"
}
{ 
    "_id" : ObjectId("574a5fb3a1af7c632705b81e"), 
    "name" : "Petani Bawang", 
    "unique_name" : "petani-bawang", 
    "grade" : "penggalang"
}
{ 
    "_id" : ObjectId("574a5fc0a1af7c632705b81f"), 
    "name" : "Petani Tanaman Jalar", 
    "unique_name" : "petani-tanaman-jalar", 
    "grade" : "penggalang"
}
{ 
    "_id" : ObjectId("574a5fd3a1af7c632705b820"), 
    "name" : "Peternak Belut", 
    "unique_name" : "peternak-belut", 
    "grade" : "penggalang"
}
{ 
    "_id" : ObjectId("574a5fdfa1af7c632705b821"), 
    "name" : "Peternak Lele", 
    "unique_name" : "peternak-lele", 
    "grade" : "penggalang"
}
{ 
    "_id" : ObjectId("574a5ffea1af7c632705b822"), 
    "name" : "Statistika Keluarga Berencana", 
    "unique_name" : "statistika-keluarga-berencana", 
    "grade" : "penggalang"
}
{ 
    "_id" : ObjectId("574a600fa1af7c632705b823"), 
    "name" : "Pengatur Ruangan", 
    "unique_name" : "pengatur-ruangan", 
    "grade" : "penggalang"
}
{ 
    "_id" : ObjectId("574a601da1af7c632705b824"), 
    "name" : "Pengatur Meja Makan", 
    "unique_name" : "pengatur-meja-makan", 
    "grade" : "penggalang"
}
{ 
    "_id" : ObjectId("574a602ea1af7c632705b825"), 
    "name" : "Pemadam Kebakaran", 
    "unique_name" : "pemadam-kebakaran", 
    "grade" : "penggalang"
}
{ 
    "_id" : ObjectId("574a6041a1af7c632705b826"), 
    "name" : "Pengatur Lalu Lintas", 
    "unique_name" : "pengatur-lalu-lintas", 
    "grade" : "penggalang"
}
{ 
    "_id" : ObjectId("574a6054a1af7c632705b827"), 
    "name" : "Pengaman Lingkungan", 
    "unique_name" : "pengaman-lingkungan", 
    "grade" : "penggalang"
}
{ 
    "_id" : ObjectId("574a6065a1af7c632705b828"), 
    "name" : "Penunjuk Jalan", 
    "unique_name" : "penunjuk-jalan", 
    "grade" : "penggalang"
}
{ 
    "_id" : ObjectId("574a6072a1af7c632705b829"), 
    "name" : "Juru Bahasa", 
    "unique_name" : "juru-bahasa", 
    "grade" : "penggalang"
}
{ 
    "_id" : ObjectId("574a607ca1af7c632705b82a"), 
    "name" : "Juru Perenang", 
    "unique_name" : "juru-perenang", 
    "grade" : "penggalang"
}
{ 
    "_id" : ObjectId("574a6089a1af7c632705b82b"), 
    "name" : "Korespondensi", 
    "unique_name" : "korespondensi", 
    "grade" : "penggalang"
}
{ 
    "_id" : ObjectId("574a60bda1af7c632705b82c"), 
    "name" : "Pertolongan Pertama Pada Kecelakaan P3K", 
    "unique_name" : "pertolongan-pertama-pada-kecelakaan-p3k", 
    "grade" : "penggalang"
}
{ 
    "_id" : ObjectId("574a60cca1af7c632705b82d"), 
    "name" : "Penyuluh Padi", 
    "unique_name" : "penyuluh-padi", 
    "grade" : "penggalang"
}
{ 
    "_id" : ObjectId("574a60e1a1af7c632705b82e"), 
    "name" : "Keadaan Darurat Udara", 
    "unique_name" : "keadaan-darurat-udara", 
    "grade" : "penggalang"
}
{ 
    "_id" : ObjectId("574a60e8a1af7c632705b82f"), 
    "name" : "Keadaan Darurat Laut", 
    "unique_name" : "keadaan-darurat-laut", 
    "grade" : "penggalang"
}
{ 
    "_id" : ObjectId("574a60fba1af7c632705b830"), 
    "name" : "Pembantu Ibu", 
    "unique_name" : "pembantu-ibu", 
    "grade" : "penggalang"
}
{ 
    "_id" : ObjectId("574a610aa1af7c632705b831"), 
    "name" : "Pengasuh Anak", 
    "unique_name" : "pengasuh-anak", 
    "grade" : "penggalang"
}
{ 
    "_id" : ObjectId("574a6116a1af7c632705b832"), 
    "name" : "Penerima Tamu", 
    "unique_name" : "penerima-tamu", 
    "grade" : "penggalang"
}
{ 
    "_id" : ObjectId("574a6126a1af7c632705b833"), 
    "name" : "Pendaki Gunung", 
    "unique_name" : "pendaki-gunung", 
    "grade" : "penggalang"
}
{ 
    "_id" : ObjectId("574a6133a1af7c632705b834"), 
    "name" : "Juru Ukur", 
    "unique_name" : "juru-ukur", 
    "grade" : "penggalang"
}
{ 
    "_id" : ObjectId("574a613fa1af7c632705b835"), 
    "name" : "Kependudukan", 
    "unique_name" : "kependudukan", 
    "grade" : "penggalang"
}
{ 
    "_id" : ObjectId("574a6153a1af7c632705b836"), 
    "name" : "Pendataan Keluarga Berencana", 
    "unique_name" : "pendataan-keluarga-berencana", 
    "grade" : "penggalang"
}
{ 
    "_id" : ObjectId("574a616aa1af7c632705b837"), 
    "name" : "Kesejahteraan Keluarga", 
    "unique_name" : "kesejahteraan-keluarga", 
    "grade" : "penggalang"
}
{ 
    "_id" : ObjectId("574a6178a1af7c632705b838"), 
    "name" : "Dirigen", 
    "unique_name" : "dirigen", 
    "grade" : "penggalang"
}
{ 
    "_id" : ObjectId("574a6183a1af7c632705b839"), 
    "name" : "Penyanyi", 
    "unique_name" : "penyanyi", 
    "grade" : "penggalang"
}
{ 
    "_id" : ObjectId("574a618da1af7c632705b83a"), 
    "name" : "Pelukis", 
    "unique_name" : "pelukis", 
    "grade" : "penggalang"
}
{ 
    "_id" : ObjectId("574a6199a1af7c632705b83b"), 
    "name" : "Juru Gambar", 
    "unique_name" : "juru-gambar", 
    "grade" : "penggalang"
}
{ 
    "_id" : ObjectId("574a61a6a1af7c632705b83c"), 
    "name" : "Pengarang", 
    "unique_name" : "pengarang", 
    "grade" : "penggalang"
}
{ 
    "_id" : ObjectId("574a61b0a1af7c632705b83d"), 
    "name" : "Pembaca", 
    "unique_name" : "pembaca", 
    "grade" : "penggalang"
}
{ 
    "_id" : ObjectId("574a61c4a1af7c632705b83e"), 
    "name" : "Pengatur Rumah", 
    "unique_name" : "pengatur-rumah", 
    "grade" : "penggalang"
}
{ 
    "_id" : ObjectId("574a6421a1af7c632705b83f"), 
    "name" : "Peternak Ayam", 
    "unique_name" : "peternak-ayam", 
    "grade" : "penggalang"
}
